Police Sentiment Data Analysis
…
4 options for race and one other option does not allow for a sophisticated breakdown of ethnicity. The police have bucketed race into very broad categories and thus this analysis will also make claims that must be prefaced with this datasets broad bucketing of race.

*find what age breakout means

On the topic of sex and gender: Two sexes are listed without the inclusion of intersex. Gender is also not considered, and therefore this analysis is limited to a binary analysis between the male and female sexes.

This data set does not let us directly observe demographics of multiple characteristics of interest from their survey results. For example, we cannot analyze the trust score of middle aged female asian-americans. Access to those raw survey results is not available.

I am curious to see how the Chicago Police decided to break the demographics compares to the census teams work.

Introduction to Variables

describe(eda_sentiment)

## # A tibble: 22 x 26
##    variable      n    na  mean    sd se_mean   IQR skewness kurtosis   p00   p01
##    <chr>     <int> <int> <dbl> <dbl>   <dbl> <dbl>    <dbl>    <dbl> <dbl> <dbl>
##  1 safety       77     0  57.7  5.91   0.674  9.82   0.373    -1.09   49.1  49.2
##  2 s_race_a~    77     0  54.9  4.29   0.489  6.69   0.247    -0.967  47.1  47.3
##  3 s_race_a~    77     0  58.3  4.19   0.478  6.33   0.649    -0.923  52.5  52.5
##  4 s_race_h~    77     0  57.0  5.37   0.612  8.58   0.462    -0.984  48.7  49.0
##  5 s_race_w~    77     0  62.2  4.07   0.464  6.24   0.261    -0.179  53.6  53.8
##  6 s_race_o~    77     0  55.1  2.45   0.279  4.22  -0.0502   -0.901  49.8  50.3
##  7 s_age_low    77     0  57.6  6.86   0.782 12.2    0.328    -1.15   48.5  48.6
##  8 s_age_me~    77     0  56.2  6.08   0.693  9.53   0.424    -0.876  46.9  47.0
##  9 s_age_hi~    77     0  59.1  5.10   0.582  8.68   0.359    -0.980  50.2  51.5
## 10 s_sex_fe~    77     0  57.4  6.09   0.694 10.1    0.385    -0.972  47.3  48.6
## # ... with 12 more rows, and 15 more variables: p05 <dbl>, p10 <dbl>,
## #   p20 <dbl>, p25 <dbl>, p30 <dbl>, p40 <dbl>, p50 <dbl>, p60 <dbl>,
## #   p70 <dbl>, p75 <dbl>, p80 <dbl>, p90 <dbl>, p95 <dbl>, p99 <dbl>,
## #   p100 <dbl>
…
